{
  "project_info": {
    "project_number": "1093740119408",
    "firebase_url": "https://ppgtower.firebaseio.com",
    "project_id": "ppgtower",
    "storage_bucket": "ppgtower.appspot.com"
  },
  "client": [
    {
      "client_info": {
        "mobilesdk_app_id": "1:1093740119408:android:a62bd9eb4dcafc3a",
        "android_client_info": {
          "package_name": "com.hautecouture.ppgtower"
        }
      },
      "oauth_client": [
        {
          "client_id": "1093740119408-98bksg0nnaauh72kobsh905v72i45hd9.apps.googleusercontent.com",
          "client_type": 3
        }
      ],
      "api_key": [
        {
          "current_key": "AIzaSyDJd1RpXlDnCZDxIBMHtLBMEUixIb7V430"
        }
      ],
      "services": {
        "analytics_service": {
          "status": 1
        },
        "appinvite_service": {
          "status": 1,
          "other_platform_oauth_client": []
        },
        "ads_service": {
          "status": 2
        }
      }
    }
  ],
  "configuration_version": "1"
}