%YAML 1.1
%TAG !u! tag:unity3d.com,2011:
--- !u!74 &7400000
AnimationClip:
  m_ObjectHideFlags: 0
  m_PrefabParentObject: {fileID: 0}
  m_PrefabInternal: {fileID: 0}
  m_Name: touch
  serializedVersion: 4
  m_AnimationType: 2
  m_Compressed: 0
  m_UseHighQualityCurve: 1
  m_RotationCurves: []
  m_CompressedRotationCurves: []
  m_PositionCurves: []
  m_ScaleCurves:
  - curve:
      serializedVersion: 2
      m_Curve:
      - time: 0
        value: {x: .906887174, y: .906887352, z: .906887352}
        inSlope: {x: .27086556, y: .270865977, z: .270865977}
        outSlope: {x: .27086556, y: .270865977, z: .270865977}
        tangentMode: 0
      - time: 1
        value: {x: 1.17775273, y: 1.17775333, z: 1.17775333}
        inSlope: {x: -2.98321247e-05, y: -2.96831131e-05, z: -2.96831131e-05}
        outSlope: {x: -2.98321247e-05, y: -2.96831131e-05, z: -2.96831131e-05}
        tangentMode: 136513468
      - time: 2
        value: {x: .906827509, y: .906827986, z: .906827986}
        inSlope: {x: -.270925224, y: -.270925343, z: -.270925343}
        outSlope: {x: -.270925224, y: -.270925343, z: -.270925343}
        tangentMode: 10
      m_PreInfinity: 2
      m_PostInfinity: 2
    path: 
  m_FloatCurves: []
  m_PPtrCurves: []
  m_SampleRate: 60
  m_WrapMode: 0
  m_Bounds:
    m_Center: {x: 0, y: 0, z: 0}
    m_Extent: {x: 0, y: 0, z: 0}
  m_ClipBindingConstant:
    genericBindings:
    - path: 0
      attribute: 3
      script: {fileID: 0}
      classID: 4
      customType: 0
      isPPtrCurve: 0
    pptrCurveMapping: []
  m_AnimationClipSettings:
    serializedVersion: 2
    m_StartTime: 0
    m_StopTime: 2
    m_OrientationOffsetY: 0
    m_Level: 0
    m_CycleOffset: 0
    m_LoopTime: 1
    m_LoopBlend: 0
    m_LoopBlendOrientation: 0
    m_LoopBlendPositionY: 0
    m_LoopBlendPositionXZ: 0
    m_KeepOriginalOrientation: 0
    m_KeepOriginalPositionY: 1
    m_KeepOriginalPositionXZ: 0
    m_HeightFromFeet: 0
    m_Mirror: 0
  m_EditorCurves:
  - curve:
      serializedVersion: 2
      m_Curve:
      - time: 0
        value: .5
        inSlope: .5
        outSlope: .5
        tangentMode: 10
      - time: 1
        value: 1
        inSlope: 0
        outSlope: 0
        tangentMode: 10
      - time: 2
        value: .5
        inSlope: -.5
        outSlope: -.5
        tangentMode: 10
      m_PreInfinity: 2
      m_PostInfinity: 2
    attribute: m_LocalScale.x
    path: 
    classID: 4
    script: {fileID: 0}
  - curve:
      serializedVersion: 2
      m_Curve:
      - time: 0
        value: .5
        inSlope: .5
        outSlope: .5
        tangentMode: 10
      - time: 1
        value: 1
        inSlope: 0
        outSlope: 0
        tangentMode: 10
      - time: 2
        value: .5
        inSlope: -.5
        outSlope: -.5
        tangentMode: 10
      m_PreInfinity: 2
      m_PostInfinity: 2
    attribute: m_LocalScale.y
    path: 
    classID: 4
    script: {fileID: 0}
  - curve:
      serializedVersion: 2
      m_Curve:
      - time: 0
        value: .5
        inSlope: .5
        outSlope: .5
        tangentMode: 10
      - time: 1
        value: 1
        inSlope: 0
        outSlope: 0
        tangentMode: 10
      - time: 2
        value: .5
        inSlope: -.5
        outSlope: -.5
        tangentMode: 10
      m_PreInfinity: 2
      m_PostInfinity: 2
    attribute: m_LocalScale.z
    path: 
    classID: 4
    script: {fileID: 0}
  - curve:
      serializedVersion: 2
      m_Curve:
      - time: 0
        value: .906887174
        inSlope: .27086556
        outSlope: .27086556
        tangentMode: 10
      - time: 1
        value: 1.17775273
        inSlope: -2.98321247e-05
        outSlope: -2.98321247e-05
        tangentMode: 10
      - time: 2
        value: .906827509
        inSlope: -.270925224
        outSlope: -.270925224
        tangentMode: 10
      m_PreInfinity: 2
      m_PostInfinity: 2
    attribute: m_LocalScale.x
    path: 
    classID: 224
    script: {fileID: 0}
  - curve:
      serializedVersion: 2
      m_Curve:
      - time: 0
        value: .906887352
        inSlope: .270865977
        outSlope: .270865977
        tangentMode: 10
      - time: 1
        value: 1.17775333
        inSlope: -2.96831131e-05
        outSlope: -2.96831131e-05
        tangentMode: 10
      - time: 2
        value: .906827986
        inSlope: -.270925343
        outSlope: -.270925343
        tangentMode: 10
      m_PreInfinity: 2
      m_PostInfinity: 2
    attribute: m_LocalScale.y
    path: 
    classID: 224
    script: {fileID: 0}
  - curve:
      serializedVersion: 2
      m_Curve:
      - time: 0
        value: .906887352
        inSlope: .270865977
        outSlope: .270865977
        tangentMode: 10
      - time: 1
        value: 1.17775333
        inSlope: -2.96831131e-05
        outSlope: -2.96831131e-05
        tangentMode: 10
      - time: 2
        value: .906827986
        inSlope: -.270925343
        outSlope: -.270925343
        tangentMode: 10
      m_PreInfinity: 2
      m_PostInfinity: 2
    attribute: m_LocalScale.z
    path: 
    classID: 224
    script: {fileID: 0}
  m_EulerEditorCurves: []
  m_Events: []
